test/vcd/sim.vcd
$version Generated by VerilatedVcd $end
$timescale 1ps $end

 $scope module TOP $end
  $var wire  1 O" sim_trace $end
  $var wire  1 P" sys_clk $end
  $var wire  8 V" uartbone_sink_data [7:0] $end
  $var wire  1 U" uartbone_sink_ready $end
  $var wire  1 T" uartbone_sink_valid $end
  $var wire  8 S" uartbone_source_data [7:0] $end
  $var wire  1 R" uartbone_source_ready $end
  $var wire  1 Q" uartbone_source_valid $end
  $scope module sim $end
   $var wire  6 n! builder_csr_bankarray_adr [5:0] $end
   $var wire 32 K! builder_csr_bankarray_csrbank0_bus_errors_r [31:0] $end
   $var wire  1 k! builder_csr_bankarray_csrbank0_bus_errors_re $end
   $var wire 32 C builder_csr_bankarray_csrbank0_bus_errors_w [31:0] $end
   $var wire  1 D builder_csr_bankarray_csrbank0_bus_errors_we $end
   $var wire  2 g! builder_csr_bankarray_csrbank0_reset0_r [1:0] $end
   $var wire  1 f! builder_csr_bankarray_csrbank0_reset0_re $end
   $var wire  2 ? builder_csr_bankarray_csrbank0_reset0_w [1:0] $end
   $var wire  1 h! builder_csr_bankarray_csrbank0_reset0_we $end
   $var wire 32 K! builder_csr_bankarray_csrbank0_scratch0_r [31:0] $end
   $var wire  1 i! builder_csr_bankarray_csrbank0_scratch0_re $end
   $var wire 32 A builder_csr_bankarray_csrbank0_scratch0_w [31:0] $end
   $var wire  1 j! builder_csr_bankarray_csrbank0_scratch0_we $end
   $var wire  1 l! builder_csr_bankarray_csrbank0_sel $end
   $var wire  1 x! builder_csr_bankarray_csrbank1_en0_r $end
   $var wire  1 w! builder_csr_bankarray_csrbank1_en0_re $end
   $var wire  1 U builder_csr_bankarray_csrbank1_en0_w $end
   $var wire  1 y! builder_csr_bankarray_csrbank1_en0_we $end
   $var wire  1 x! builder_csr_bankarray_csrbank1_ev_enable0_r $end
   $var wire  1 !" builder_csr_bankarray_csrbank1_ev_enable0_re $end
   $var wire  1 f builder_csr_bankarray_csrbank1_ev_enable0_w $end
   $var wire  1 "" builder_csr_bankarray_csrbank1_ev_enable0_we $end
   $var wire  1 x! builder_csr_bankarray_csrbank1_ev_pending_r $end
   $var wire  1 ~! builder_csr_bankarray_csrbank1_ev_pending_re $end
   $var wire  1 ^ builder_csr_bankarray_csrbank1_ev_pending_w $end
   $var wire  1 c builder_csr_bankarray_csrbank1_ev_pending_we $end
   $var wire  1 x! builder_csr_bankarray_csrbank1_ev_status_r $end
   $var wire  1 }! builder_csr_bankarray_csrbank1_ev_status_re $end
   $var wire  1 ] builder_csr_bankarray_csrbank1_ev_status_w $end
   $var wire  1 a builder_csr_bankarray_csrbank1_ev_status_we $end
   $var wire 32 K! builder_csr_bankarray_csrbank1_load0_r [31:0] $end
   $var wire  1 s! builder_csr_bankarray_csrbank1_load0_re $end
   $var wire 32 Q builder_csr_bankarray_csrbank1_load0_w [31:0] $end
   $var wire  1 t! builder_csr_bankarray_csrbank1_load0_we $end
   $var wire 32 K! builder_csr_bankarray_csrbank1_reload0_r [31:0] $end
   $var wire  1 u! builder_csr_bankarray_csrbank1_reload0_re $end
   $var wire 32 S builder_csr_bankarray_csrbank1_reload0_w [31:0] $end
   $var wire  1 v! builder_csr_bankarray_csrbank1_reload0_we $end
   $var wire  1 #" builder_csr_bankarray_csrbank1_sel $end
   $var wire  1 x! builder_csr_bankarray_csrbank1_update_value0_r $end
   $var wire  1 z! builder_csr_bankarray_csrbank1_update_value0_re $end
   $var wire  1 W builder_csr_bankarray_csrbank1_update_value0_w $end
   $var wire  1 {! builder_csr_bankarray_csrbank1_update_value0_we $end
   $var wire 32 K! builder_csr_bankarray_csrbank1_value_r [31:0] $end
   $var wire  1 |! builder_csr_bankarray_csrbank1_value_re $end
   $var wire 32 Y builder_csr_bankarray_csrbank1_value_w [31:0] $end
   $var wire  1 Z builder_csr_bankarray_csrbank1_value_we $end
   $var wire  8 o! builder_csr_bankarray_dat_r [7:0] $end
   $var wire 14 I! builder_csr_bankarray_interface0_bank_bus_adr [13:0] $end
   $var wire 32 e! builder_csr_bankarray_interface0_bank_bus_dat_r [31:0] $end
   $var wire 32 K! builder_csr_bankarray_interface0_bank_bus_dat_w [31:0] $end
   $var wire  1 J! builder_csr_bankarray_interface0_bank_bus_we $end
   $var wire 14 I! builder_csr_bankarray_interface1_bank_bus_adr [13:0] $end
   $var wire 32 r! builder_csr_bankarray_interface1_bank_bus_dat_r [31:0] $end
   $var wire 32 K! builder_csr_bankarray_interface1_bank_bus_dat_w [31:0] $end
   $var wire  1 J! builder_csr_bankarray_interface1_bank_bus_we $end
   $var wire  1 p! builder_csr_bankarray_sel $end
   $var wire  1 q! builder_csr_bankarray_sel_r $end
   $var wire 14 I! builder_csr_bankarray_sram_bus_adr [13:0] $end
   $var wire 32 m! builder_csr_bankarray_sram_bus_dat_r [31:0] $end
   $var wire 32 K! builder_csr_bankarray_sram_bus_dat_w [31:0] $end
   $var wire  1 J! builder_csr_bankarray_sram_bus_we $end
   $var wire 14 I! builder_csr_interconnect_adr [13:0] $end
   $var wire 32 L! builder_csr_interconnect_dat_r [31:0] $end
   $var wire 32 K! builder_csr_interconnect_dat_w [31:0] $end
   $var wire  1 J! builder_csr_interconnect_we $end
   $var wire  1 a! builder_decoder_changed $end
   $var wire 64 V! builder_decoder_count [63:0] $end
   $var wire  3 T! builder_decoder_master [2:0] $end
   $var wire 30 X! builder_decoder_old_vals0 [29:0] $end
   $var wire  1 Y! builder_decoder_old_vals1 $end
   $var wire 32 Z! builder_decoder_old_vals2 [31:0] $end
   $var wire 32 [! builder_decoder_old_vals3 [31:0] $end
   $var wire  1 \! builder_decoder_old_vals4 $end
   $var wire 32 ]! builder_decoder_old_vals5 [31:0] $end
   $var wire  1 ^! builder_decoder_old_vals6 $end
   $var wire 32 _! builder_decoder_old_vals7 [31:0] $end
   $var wire  1 `! builder_decoder_old_vals8 $end
   $var wire  3 U! builder_decoder_slaves [2:0] $end
   $var wire  1 S! builder_grant $end
   $var wire  2 R! builder_request [1:0] $end
   $var wire 32 L" builder_self0 [31:0] $end
   $var wire 32 H builder_self1 [31:0] $end
   $var wire  4 J builder_self2 [3:0] $end
   $var wire  1 P! builder_self3 $end
   $var wire  1 L builder_self4 $end
   $var wire  1 N builder_self5 $end
   $var wire  3 # builder_self6 [2:0] $end
   $var wire  2 $ builder_self7 [1:0] $end
   $var wire  1 Q! builder_shared_ack $end
   $var wire 30 G builder_shared_adr [29:0] $end
   $var wire  2 $ builder_shared_bte [1:0] $end
   $var wire  3 # builder_shared_cti [2:0] $end
   $var wire  1 P! builder_shared_cyc $end
   $var wire 32 p builder_shared_dat_r [31:0] $end
   $var wire 32 H builder_shared_dat_w [31:0] $end
   $var wire  1 W" builder_shared_err $end
   $var wire  4 J builder_shared_sel [3:0] $end
   $var wire  1 L builder_shared_stb $end
   $var wire  1 N builder_shared_we $end
   $var wire 14 I! builder_simsoc_adr [13:0] $end
   $var wire 32 L! builder_simsoc_dat_r [31:0] $end
   $var wire 32 K! builder_simsoc_dat_w [31:0] $end
   $var wire  1 & builder_simsoc_uartbone_fsm_is_el0 $end
   $var wire  1 ' builder_simsoc_uartbone_fsm_is_el1 $end
   $var wire  1 ( builder_simsoc_uartbone_fsm_is_el2 $end
   $var wire  1 ) builder_simsoc_uartbone_fsm_is_el3 $end
   $var wire  1 * builder_simsoc_uartbone_fsm_is_el4 $end
   $var wire  1 + builder_simsoc_uartbone_fsm_is_el5 $end
   $var wire  1 , builder_simsoc_uartbone_fsm_is_el6 $end
   $var wire  3 % builder_simsoc_uartbone_next_state [2:0] $end
   $var wire  1 %" builder_simsoc_uartbone_signal_is_el0 $end
   $var wire  1 &" builder_simsoc_uartbone_signal_is_el1 $end
   $var wire  1 '" builder_simsoc_uartbone_signal_is_el2 $end
   $var wire  1 (" builder_simsoc_uartbone_signal_is_el3 $end
   $var wire  1 )" builder_simsoc_uartbone_signal_is_el4 $end
   $var wire  1 *" builder_simsoc_uartbone_signal_is_el5 $end
   $var wire  1 +" builder_simsoc_uartbone_signal_is_el6 $end
   $var wire  3 $" builder_simsoc_uartbone_state [2:0] $end
   $var wire  1 /" builder_simsoc_wbregister_fsm_is_el0 $end
   $var wire  1 1" builder_simsoc_wbregister_fsm_is_el1 $end
   $var wire  1 -" builder_simsoc_wbregister_next_state $end
   $var wire  1 ." builder_simsoc_wbregister_signal_is_el0 $end
   $var wire  1 0" builder_simsoc_wbregister_signal_is_el1 $end
   $var wire  1 ," builder_simsoc_wbregister_state $end
   $var wire  1 5" builder_simsoc_wbregistertester_fsm_is_el0 $end
   $var wire  1 7" builder_simsoc_wbregistertester_fsm_is_el1 $end
   $var wire  1 9" builder_simsoc_wbregistertester_fsm_is_el2 $end
   $var wire  1 ;" builder_simsoc_wbregistertester_fsm_is_el3 $end
   $var wire  1 =" builder_simsoc_wbregistertester_fsm_is_el4 $end
   $var wire  1 ?" builder_simsoc_wbregistertester_fsm_is_el5 $end
   $var wire  1 A" builder_simsoc_wbregistertester_fsm_is_el6 $end
   $var wire  1 C" builder_simsoc_wbregistertester_fsm_is_el7 $end
   $var wire  3 3" builder_simsoc_wbregistertester_next_state [2:0] $end
   $var wire  1 4" builder_simsoc_wbregistertester_signal_is_el0 $end
   $var wire  1 6" builder_simsoc_wbregistertester_signal_is_el1 $end
   $var wire  1 8" builder_simsoc_wbregistertester_signal_is_el2 $end
   $var wire  1 :" builder_simsoc_wbregistertester_signal_is_el3 $end
   $var wire  1 <" builder_simsoc_wbregistertester_signal_is_el4 $end
   $var wire  1 >" builder_simsoc_wbregistertester_signal_is_el5 $end
   $var wire  1 @" builder_simsoc_wbregistertester_signal_is_el6 $end
   $var wire  1 B" builder_simsoc_wbregistertester_signal_is_el7 $end
   $var wire  3 2" builder_simsoc_wbregistertester_state [2:0] $end
   $var wire  1 J! builder_simsoc_we $end
   $var wire  1 I" builder_simsoc_wishbone2csr_fsm_is_el0 $end
   $var wire  1 K" builder_simsoc_wishbone2csr_fsm_is_el1 $end
   $var wire  1 G" builder_simsoc_wishbone2csr_next_state $end
   $var wire  1 H" builder_simsoc_wishbone2csr_signal_is_el0 $end
   $var wire  1 J" builder_simsoc_wishbone2csr_signal_is_el1 $end
   $var wire  1 F" builder_simsoc_wishbone2csr_state $end
   $var wire  1 O! builder_simsoc_wishbone_ack $end
   $var wire 30 G builder_simsoc_wishbone_adr [29:0] $end
   $var wire  2 $ builder_simsoc_wishbone_bte [1:0] $end
   $var wire  3 # builder_simsoc_wishbone_cti [2:0] $end
   $var wire  1 N! builder_simsoc_wishbone_cyc $end
   $var wire 32 M! builder_simsoc_wishbone_dat_r [31:0] $end
   $var wire 32 H builder_simsoc_wishbone_dat_w [31:0] $end
   $var wire  1 W" builder_simsoc_wishbone_err $end
   $var wire  4 J builder_simsoc_wishbone_sel [3:0] $end
   $var wire  1 L builder_simsoc_wishbone_stb $end
   $var wire  1 N builder_simsoc_wishbone_we $end
   $var wire 20 d! builder_timeout_count [19:0] $end
   $var wire  1 c! builder_timeout_done $end
   $var wire  1 F builder_timeout_error $end
   $var wire  1 b! builder_timeout_wait $end
   $var wire  1 i main_int_rst $end
   $var wire  1 ;! main_monitor0_changed $end
   $var wire  1 6! main_monitor0_old_vals0 $end
   $var wire  1 7! main_monitor0_old_vals1 $end
   $var wire  1 8! main_monitor0_old_vals2 $end
   $var wire 32 9! main_monitor0_old_vals3 [31:0] $end
   $var wire 32 :! main_monitor0_old_vals4 [31:0] $end
   $var wire  1 A! main_monitor1_changed $end
   $var wire  1 <! main_monitor1_old_vals0 $end
   $var wire  1 =! main_monitor1_old_vals1 $end
   $var wire  1 >! main_monitor1_old_vals2 $end
   $var wire 32 ?! main_monitor1_old_vals3 [31:0] $end
   $var wire 32 @! main_monitor1_old_vals4 [31:0] $end
   $var wire  1 H! main_monitor2_changed $end
   $var wire  1 B! main_monitor2_old_vals0 $end
   $var wire  1 C! main_monitor2_old_vals1 $end
   $var wire  1 D! main_monitor2_old_vals2 $end
   $var wire 32 E! main_monitor2_old_vals3 [31:0] $end
   $var wire 32 F! main_monitor2_old_vals4 [31:0] $end
   $var wire 32 G! main_monitor2_old_vals5 [31:0] $end
   $var wire 11 O main_simsoc_adr [10:0] $end
   $var wire  1 W" main_simsoc_adr_burst $end
   $var wire  1 F main_simsoc_bus_error $end
   $var wire 32 C main_simsoc_bus_errors [31:0] $end
   $var wire  1 E main_simsoc_bus_errors_re $end
   $var wire 32 C main_simsoc_bus_errors_status [31:0] $end
   $var wire  1 D main_simsoc_bus_errors_we $end
   $var wire  1 > main_simsoc_cpu_rst $end
   $var wire 32 I main_simsoc_dat_r [31:0] $end
   $var wire 32 H main_simsoc_dat_w [31:0] $end
   $var wire  1 V main_simsoc_en_re $end
   $var wire  1 U main_simsoc_en_storage $end
   $var wire  1 g main_simsoc_enable_re $end
   $var wire  1 f main_simsoc_enable_storage $end
   $var wire  1 \ main_simsoc_irq $end
   $var wire  1 R main_simsoc_load_re $end
   $var wire 32 Q main_simsoc_load_storage [31:0] $end
   $var wire  1 e main_simsoc_pending_r $end
   $var wire  1 d main_simsoc_pending_re $end
   $var wire  1 ^ main_simsoc_pending_status $end
   $var wire  1 c main_simsoc_pending_we $end
   $var wire  1 M main_simsoc_ram_bus_ack $end
   $var wire 30 G main_simsoc_ram_bus_adr [29:0] $end
   $var wire  2 $ main_simsoc_ram_bus_bte [1:0] $end
   $var wire  3 # main_simsoc_ram_bus_cti [2:0] $end
   $var wire  1 K main_simsoc_ram_bus_cyc $end
   $var wire 32 I main_simsoc_ram_bus_dat_r [31:0] $end
   $var wire 32 H main_simsoc_ram_bus_dat_w [31:0] $end
   $var wire  1 W" main_simsoc_ram_bus_err $end
   $var wire  4 J main_simsoc_ram_bus_sel [3:0] $end
   $var wire  1 L main_simsoc_ram_bus_stb $end
   $var wire  1 N main_simsoc_ram_bus_we $end
   $var wire  1 T main_simsoc_reload_re $end
   $var wire 32 S main_simsoc_reload_storage [31:0] $end
   $var wire  1 @ main_simsoc_reset_re $end
   $var wire  2 ? main_simsoc_reset_storage [1:0] $end
   $var wire  1 B main_simsoc_scratch_re $end
   $var wire 32 A main_simsoc_scratch_storage [31:0] $end
   $var wire  1 = main_simsoc_soc_rst $end
   $var wire  1 b main_simsoc_status_re $end
   $var wire  1 ] main_simsoc_status_status $end
   $var wire  1 a main_simsoc_status_we $end
   $var wire  1 X main_simsoc_update_value_re $end
   $var wire  1 W main_simsoc_update_value_storage $end
   $var wire 32 h main_simsoc_value [31:0] $end
   $var wire  1 [ main_simsoc_value_re $end
   $var wire 32 Y main_simsoc_value_status [31:0] $end
   $var wire  1 Z main_simsoc_value_we $end
   $var wire  4 P main_simsoc_we [3:0] $end
   $var wire  1 ] main_simsoc_zero0 $end
   $var wire  1 ^ main_simsoc_zero1 $end
   $var wire  1 f main_simsoc_zero2 $end
   $var wire  1 _ main_simsoc_zero_clear $end
   $var wire  1 ^ main_simsoc_zero_pending $end
   $var wire  1 ] main_simsoc_zero_status $end
   $var wire  1 ] main_simsoc_zero_trigger $end
   $var wire  1 ` main_simsoc_zero_trigger_d $end
   $var wire  1 k main_sink_last $end
   $var wire  8 l main_sink_payload_data [7:0] $end
   $var wire  1 R" main_sink_ready $end
   $var wire  1 j main_sink_valid $end
   $var wire  8 V" main_source_payload_data [7:0] $end
   $var wire  1 m main_source_ready $end
   $var wire  1 T" main_source_valid $end
   $var wire 64 4! main_sys_clk_counter_count [63:0] $end
   $var wire  2 y main_uartbone_addr_bytes_count [1:0] $end
   $var wire  2 / main_uartbone_addr_bytes_count_uartbone_next_value1 [1:0] $end
   $var wire  1 0 main_uartbone_addr_bytes_count_uartbone_next_value_ce1 $end
   $var wire 32 n main_uartbone_address [31:0] $end
   $var wire 32 7 main_uartbone_address_uartbone_next_value5 [31:0] $end
   $var wire  1 8 main_uartbone_address_uartbone_next_value_ce5 $end
   $var wire  8 u main_uartbone_cmd [7:0] $end
   $var wire  8 3 main_uartbone_cmd_uartbone_next_value3 [7:0] $end
   $var wire  1 4 main_uartbone_cmd_uartbone_next_value_ce3 $end
   $var wire 24 } main_uartbone_count [23:0] $end
   $var wire 32 o main_uartbone_data [31:0] $end
   $var wire  2 x main_uartbone_data_bytes_count [1:0] $end
   $var wire  2 - main_uartbone_data_bytes_count_uartbone_next_value0 [1:0] $end
   $var wire  1 . main_uartbone_data_bytes_count_uartbone_next_value_ce0 $end
   $var wire 32 ; main_uartbone_data_uartbone_next_value7 [31:0] $end
   $var wire  1 < main_uartbone_data_uartbone_next_value_ce7 $end
   $var wire  1 { main_uartbone_done $end
   $var wire  1 v main_uartbone_incr $end
   $var wire  1 9 main_uartbone_incr_uartbone_next_value6 $end
   $var wire  1 : main_uartbone_incr_uartbone_next_value_ce6 $end
   $var wire  1 ~ main_uartbone_is_ongoing $end
   $var wire  8 w main_uartbone_length [7:0] $end
   $var wire  8 5 main_uartbone_length_uartbone_next_value4 [7:0] $end
   $var wire  1 6 main_uartbone_length_uartbone_next_value_ce4 $end
   $var wire  1 { main_uartbone_reset $end
   $var wire  1 | main_uartbone_wait $end
   $var wire  1 s main_uartbone_wishbone_ack $end
   $var wire 32 n main_uartbone_wishbone_adr [31:0] $end
   $var wire  2 Z" main_uartbone_wishbone_bte [1:0] $end
   $var wire  3 Y" main_uartbone_wishbone_cti [2:0] $end
   $var wire  1 q main_uartbone_wishbone_cyc $end
   $var wire 32 p main_uartbone_wishbone_dat_r [31:0] $end
   $var wire 32 o main_uartbone_wishbone_dat_w [31:0] $end
   $var wire  1 [" main_uartbone_wishbone_err $end
   $var wire  4 X" main_uartbone_wishbone_sel [3:0] $end
   $var wire  1 r main_uartbone_wishbone_stb $end
   $var wire  1 t main_uartbone_wishbone_we $end
   $var wire  8 z main_uartbone_words_count [7:0] $end
   $var wire  8 1 main_uartbone_words_count_uartbone_next_value2 [7:0] $end
   $var wire  1 2 main_uartbone_words_count_uartbone_next_value_ce2 $end
   $var wire 16 #! main_wb_reg32_a [15:0] $end
   $var wire  1 )! main_wb_reg32_ack $end
   $var wire  1 '! main_wb_reg32_bus_ack $end
   $var wire 16 $! main_wb_reg32_bus_adr [15:0] $end
   $var wire  2 $ main_wb_reg32_bus_bte [1:0] $end
   $var wire  3 # main_wb_reg32_bus_cti [2:0] $end
   $var wire  1 &! main_wb_reg32_bus_cyc $end
   $var wire 32 %! main_wb_reg32_bus_dat_r [31:0] $end
   $var wire 32 H main_wb_reg32_bus_dat_w [31:0] $end
   $var wire  1 W" main_wb_reg32_bus_err $end
   $var wire  4 J main_wb_reg32_bus_sel [3:0] $end
   $var wire  1 L main_wb_reg32_bus_stb $end
   $var wire  1 N main_wb_reg32_bus_we $end
   $var wire 32 !! main_wb_reg32_d [31:0] $end
   $var wire 32 *! main_wb_reg32_dat_r [31:0] $end
   $var wire 32 "! main_wb_reg32_q [31:0] $end
   $var wire  1 (! main_wb_reg32_wb_valid $end
   $var wire  1 0! main_wb_reg_tester_bus_ack $end
   $var wire 30 +! main_wb_reg_tester_bus_adr [29:0] $end
   $var wire  2 Z" main_wb_reg_tester_bus_bte [1:0] $end
   $var wire  3 Y" main_wb_reg_tester_bus_cti [2:0] $end
   $var wire  1 .! main_wb_reg_tester_bus_cyc $end
   $var wire 32 p main_wb_reg_tester_bus_dat_r [31:0] $end
   $var wire 32 ,! main_wb_reg_tester_bus_dat_w [31:0] $end
   $var wire  1 W" main_wb_reg_tester_bus_err $end
   $var wire  4 -! main_wb_reg_tester_bus_sel [3:0] $end
   $var wire  1 /! main_wb_reg_tester_bus_stb $end
   $var wire  1 1! main_wb_reg_tester_bus_we $end
   $var wire 32 2! main_wb_reg_tester_tmp [31:0] $end
   $var wire 32 D" main_wb_reg_tester_tmp_wbregistertester_next_value [31:0] $end
   $var wire  1 E" main_wb_reg_tester_tmp_wbregistertester_next_value_ce $end
   $var wire  8 3! main_wb_reg_tester_tries [7:0] $end
   $var wire  6 N" mem_adr0 [5:0] $end
   $var wire  1 P" por_clk $end
   $var wire  1 O" sim_trace $end
   $var wire 11 M" sram_adr0 [10:0] $end
   $var wire  1 P" sys_clk $end
   $var wire  1 P" sys_clk_1 $end
   $var wire  1 i sys_rst $end
   $var wire  8 V" uartbone_sink_data [7:0] $end
   $var wire  1 U" uartbone_sink_ready $end
   $var wire  1 T" uartbone_sink_valid $end
   $var wire  8 S" uartbone_source_data [7:0] $end
   $var wire  1 R" uartbone_source_ready $end
   $var wire  1 Q" uartbone_source_valid $end
  $upscope $end
 $upscope $end
$enddefinitions $end


#0
b000 #
b00 $
b000 %
0&
0'
0(
0)
0*
0+
0,
b00 -
1.
b00 /
10
b00000000 1
12
b00000000 3
04
b00000000 5
06
b00000000000000000000000000000000 7
08
09
0:
b00000000000000000000000000000000 ;
0<
0=
0>
b00 ?
0@
b00010010001101000101011001111000 A
0B
b00000000000000000000000000000000 C
0D
0E
0F
b000000000000000000000000000000 G
b00000000000000000000000000000000 H
b00000000000000000000000000000000 I
b1111 J
0K
0L
0M
0N
b00000000000 O
b0000 P
b00000000000000000000000000000000 Q
0R
b00000000000000000000000000000000 S
0T
0U
0V
0W
0X
b00000000000000000000000000000000 Y
0Z
0[
0\
1]
0^
0_
0`
0a
0b
0c
0d
0e
0f
0g
b00000000000000000000000000000000 h
1i
0j
0k
b00000000 l
1m
b00000000000000000000000000000000 n
b00000000000000000000000000000000 o
b00000000000000000000000000000000 p
0q
0r
0s
0t
b00000000 u
0v
b00000000 w
b00 x
b00 y
b00000000 z
0{
0|
b100110001001011010000000 }
1~
b00000000000000000000000000000000 !!
b00000000000000000000000000000000 "!
b0000000000000000 #!
b0000000000000000 $!
b00000000000000000000000000000000 %!
0&!
0'!
0(!
0)!
b00000000000000000000000000000000 *!
b000000000000000000000000000000 +!
b00000000000000000000000000000000 ,!
b0000 -!
0.!
0/!
00!
01!
b00000000000000000000000000000000 2!
b00000000 3!
b0000000000000000000000000000000000000000000000000000000000000000 4!
06!
07!
08!
b00000000000000000000000000000000 9!
b00000000000000000000000000000000 :!
0;!
0<!
0=!
0>!
b00000000000000000000000000000000 ?!
b00000000000000000000000000000000 @!
0A!
0B!
0C!
0D!
b00000000000000000000000000000000 E!
b00000000000000000000000000000000 F!
b00000000000000000000000000000000 G!
0H!
b00000000000000 I!
0J!
b00000000000000000000000000000000 K!
b00000000000000000000000000000000 L!
b00000000000000000000000000000000 M!
0N!
0O!
0P!
0Q!
b00 R!
0S!
b100 T!
b000 U!
b0000000000000000000000000000000000000000000000000000000000000000 V!
b000000000000000000000000000000 X!
0Y!
b00000000000000000000000000000000 Z!
b00000000000000000000000000000000 [!
0\!
b00000000000000000000000000000000 ]!
0^!
b00000000000000000000000000000000 _!
0`!
0a!
0b!
0c!
b11110100001001000000 d!
b00000000000000000000000000000000 e!
0f!
b00 g!
1h!
0i!
0j!
0k!
1l!
b00000000000000000000000000000000 m!
b000000 n!
b01101100 o!
0p!
0q!
b00000000000000000000000000000000 r!
0s!
0t!
0u!
0v!
0w!
0x!
0y!
0z!
0{!
0|!
0}!
0~!
0!"
0""
0#"
b000 $"
1%"
0&"
0'"
0("
0)"
0*"
0+"
0,"
1-"
1."
0/"
00"
11"
b000 2"
b001 3"
14"
05"
06"
17"
08"
09"
0:"
0;"
0<"
0="
0>"
0?"
0@"
0A"
0B"
0C"
b00000000000000000000000000000000 D"
0E"
0F"
0G"
1H"
0I"
0J"
0K"
b00000000000000000000000000000000 L"
b00000000000 M"
b000000 N"
1O"
1P"
0Q"
0R"
b00000000 S"
0T"
1U"
b00000000 V"
0W"
b1111 X"
b000 Y"
b00 Z"
0["
#5000
0P"
1R"
#10000
0i
1P"
#15000
0P"
#20000
1^
1`
b001100000000000000000000000000 +!
b11011110101011011011111011101111 ,!
b1111 -!
1.!
1/!
11!
b00000001 3!
b0000000000000000000000000000000000000000000000000000000000000001 4!
1A!
b10 R!
b100 U!
b0000000000000000000000000000000000000000000000000000000000000001 V!
0%"
1,"
0."
10"
01"
b001 2"
04"
16"
07"
0H"
1P"
#25000
0P"
#30000
b001100000000000000000000000000 G
b11011110101011011011111011101111 H
1L
1N
b11011110101011011011111011101111 !!
1&!
1(!
1)!
b00000010 3!
b0000000000000000000000000000000000000000000000000000000000000010 4!
1<!
1=!
b11011110101011011011111011101111 ?!
0A!
1H!
b11011110101011011011111011101111 K!
1P!
1S!
b010 T!
b0000000000000000000000000000000000000000000000000000000000000010 V!
1a!
1b!
b11 g!
1x!
0-"
1/"
00"
06"
b00001100000000000000000000000000 L"
1P"
#35000
0P"
#40000
b11011110101011011011111011101111 "!
1'!
10!
b00000011 3!
b0000000000000000000000000000000000000000000000000000000000000011 4!
1A!
1B!
1C!
b11011110101011011011111011101111 E!
1Q!
b010 U!
b0000000000000000000000000000000000000000000000000000000000000011 V!
b001100000000000000000000000000 X!
0b!
b11110100001000111111 d!
0,"
1-"
1."
0/"
11"
b010 3"
19"
1P"
#45000
0P"
#50000
b00000000000000000000000000000000 H
0N
0'!
b11011110101011011011111011101111 *!
b00000000000000000000000000000000 ,!
00!
01!
b00000100 3!
b0000000000000000000000000000000000000000000000000000000000000100 4!
1>!
1D!
b11011110101011011011111011101111 G!
b00000000000000000000000000000000 K!
0Q!
b0000000000000000000000000000000000000000000000000000000000000100 V!
1Y!
1^!
1b!
b11110100001001000000 d!
b00 g!
0x!
1,"
0-"
0."
1/"
10"
01"
b010 2"
18"
09"
1P"
#55000
0P"
#60000
b11011110101011011011111011101111 p
b11011110101011011011111011101111 %!
1'!
10!
b00000101 3!
b0000000000000000000000000000000000000000000000000000000000000101 4!
1;!
0>!
b00000000000000000000000000000000 ?!
0D!
b00000000000000000000000000000000 E!
1Q!
b0000000000000000000000000000000000000000000000000000000000000101 V!
0Y!
0^!
0b!
b11110100001000111111 d!
0,"
1-"
1."
0/"
00"
11"
b011 3"
08"
1;"
b11011110101011011011111011101111 D"
1E"
1P"
#65000
0P"
#70000
b000000000000000000000000000000 G
b0000 J
0L
b00000000000000000000000000000000 p
b00000000000000000000000000000000 %!
0&!
0'!
0(!
0)!
b00000000000000000000000000000000 *!
b000000000000000000000000000000 +!
b0000 -!
0.!
0/!
00!
b11011110101011011011111011101111 2!
b00000110 3!
b0000000000000000000000000000000000000000000000000000000000000110 4!
b11011110101011011011111011101111 :!
1>!
b11011110101011011011111011101111 @!
1D!
b11011110101011011011111011101111 F!
0P!
0Q!
b00 R!
b100 T!
b0000000000000000000000000000000000000000000000000000000000000110 V!
1Y!
b11011110101011011011111011101111 Z!
b11011110101011011011111011101111 ]!
1^!
b11110100001001000000 d!
1,"
0."
10"
01"
b011 2"
b100 3"
1:"
0;"
1="
b00000000000000000000000000000000 D"
0E"
b00000000000000000000000000000000 L"
1P"
#75000
0P"
#80000
b001100000000000000000000000000 G
b11011110101011011011111011110000 H
b1111 J
1L
1N
b11011110101011011011111011110000 !!
1&!
1(!
1)!
b001100000000000000000000000000 +!
b11011110101011011011111011110000 ,!
b1111 -!
1.!
1/!
11!
b00000111 3!
b0000000000000000000000000000000000000000000000000000000000000111 4!
b00000000000000000000000000000000 :!
0;!
0<!
0=!
0>!
b00000000000000000000000000000000 @!
0B!
0C!
0D!
b00000000000000000000000000000000 F!
b11011110101011011011111011110000 K!
1P!
b10 R!
b010 T!
b100 U!
b0000000000000000000000000000000000000000000000000000000000000111 V!
b000000000000000000000000000000 X!
0Y!
b00000000000000000000000000000000 Z!
b00000000000000000000000000000000 ]!
0^!
1b!
0-"
1/"
00"
b100 2"
0:"
1<"
0="
b00001100000000000000000000000000 L"
1P"
#85000
0P"
#90000
b11011110101011011011111011110000 "!
1'!
10!
b00001000 3!
b0000000000000000000000000000000000000000000000000000000000001000 4!
1<!
1=!
b11011110101011011011111011110000 ?!
1B!
1C!
b11011110101011011011111011110000 E!
1Q!
b010 U!
b0000000000000000000000000000000000000000000000000000000000001000 V!
b001100000000000000000000000000 X!
0b!
b11110100001000111111 d!
0,"
1-"
1."
0/"
11"
b101 3"
0<"
1?"
1P"
#95000
0P"
#100000
b00000000000000000000000000000000 H
0N
0'!
b11011110101011011011111011110000 *!
b00000000000000000000000000000000 ,!
00!
01!
b00001001 3!
b0000000000000000000000000000000000000000000000000000000000001001 4!
1>!
1D!
b11011110101011011011111011110000 G!
b00000000000000000000000000000000 K!
0Q!
b0000000000000000000000000000000000000000000000000000000000001001 V!
1Y!
1^!
1b!
b11110100001001000000 d!
1,"
0-"
0."
1/"
10"
01"
b101 2"
1>"
0?"
1P"
#105000
0P"
#110000
b11011110101011011011111011110000 p
b11011110101011011011111011110000 %!
1'!
10!
b00001010 3!
b0000000000000000000000000000000000000000000000000000000000001010 4!
1;!
0>!
b00000000000000000000000000000000 ?!
0D!
b00000000000000000000000000000000 E!
1Q!
b0000000000000000000000000000000000000000000000000000000000001010 V!
0Y!
0^!
0b!
b11110100001000111111 d!
0,"
1-"
1."
0/"
00"
11"
b110 3"
0>"
1A"
b11011110101011011011111011110000 D"
1E"
1P"
#115000
0P"
